[
  {
    "id": 0,
    "keyword": "/mitigately_app_signup_deploy",
    "keyword2": "/mitigately_app_signup_deploy@vultik_bot",
    "response_text": "Building and Deploying Mitigately app signup",
    "jobname": "mitigately_app_signup_pipeline"
  },
  {
    "id": 1,
    "keyword": "/mitigately_backend_api_deploy",
    "keyword2": "/mitigately_backend_api_deploy@vultik_bot",
    "response_text": "Building and Deploying Mitigately Backend api",
    "jobname": "mitigately_backend_api_pipeline"
  },
  {
    "id": 2,
    "keyword": "/mitigately_dashbrd_portl_deploy",
    "keyword2": "/mitigately_dashbrd_portl_deploy@vultik_bot",
    "response_text": "Building and Deploying Mitigately Dashboard portal",
    "jobname": "mitigately_dashboard_portal_pipeline"
  },
  {
    "id": 3,
    "keyword": "/taxity_app_deploy",
    "keyword2": "/taxity_app_deploy@vultik_bot",
    "response_text": "Building and Deploying Taxity resoly app ",
    "jobname": "taxity_app_pipeline"
  },
  {
    "id": 4,
    "keyword": "/taxity_backend_api_deploy",
    "keyword2": "/taxity_backend_api_deploy@vultik_bot",
    "response_text": "Building and Deploying Taxity backend resoly API",
    "jobname": "taxity_backend_api_pipeline"
  },
  {
    "id": 5,
    "keyword": "/dialytica_init_call_deploy",
    "keyword2": "/dialytica_init_call_deploy@vultik_bot",
    "response_text": "Building and Deploying Dialytica vos GO initiate calls",
    "jobname": "dialytica_vos_initiate_calls_pipeline"
  },
  {
    "id": 6,
    "keyword": "/dialytica_redisapi_deploy",
    "keyword2": "/dialytica_redisapi_deploy@vultik_bot",
    "response_text": "Building and Deploying Dialytica vos GO Redis API",
    "jobname": "dialytica_vos_Go_RedisApi_pipeline"
  },
  {
    "id": 7,
    "keyword": "/dialytica_calls_portal_deploy",
    "keyword2": "/dialytica_calls_portal_deploy@vultik_bot",
    "response_text": "Building and Deploying Dialytica Calls Portal",
    "jobname": "dialytica_calls_portal_pipeline"
  },
  {
    "id": 8,
    "keyword": "/dialytica_admin_portal_deploy",
    "keyword2": "/dialytica_admin_portal_deploy@vultik_bot",
    "response_text": "Building and Deploying Dialytica admin Portal",
    "jobname": "dialytica_calls_admin_portal_pipeline"
  },
  {
    "id": 9,
    "keyword": "/dialytica_qa_portal_deploy",
    "keyword2": "/dialytica_qa_portal_deploy@vultik_bot",
    "response_text": "Building and Deploying Dialytica QA Portal",
    "jobname": "dialytica_call_qa_portal_pipeline"
  },
  {
    "id": 10,
    "keyword": "/dialytica_api_voslogic_deploy",
    "keyword2": "/dialytica_api_voslogic_deploy@vultik_bot",
    "response_text": "Building and Deploying Dialytica voslogic API",
    "jobname": "dialytica_api_voslogic_pipeline"
  },
  {
    "id": 11,
    "keyword": "/dialytica_dtmf_voslogic_deploy",
    "keyword2": "/dialytica_dtmf_voslogic_deploy@vultik_bot",
    "response_text": "Building and Deploying Dialytica DTMF API",
    "jobname": "dialytica_vos_dtmf_pipeline"
  },
  {
    "id": 12,
    "keyword": "/isobotportal_calls_portal_dep",
    "keyword2": "/isobotportal_calls_portal_dep@vultik_bot",
    "response_text": "Building and Deploying ISOBOTPORTAL portal",
    "jobname": "isobot_calls_portal_pipeline"
  },
  {
    "id": 13,
    "keyword": "/isobot_api_voslogic_deploy",
    "keyword2": "/isobot_api_voslogic_deploy@vultik_bot",
    "response_text": "Building and Deploying ISOBOT vos api",
    "jobname": "isobot_api_voslogic_pipeline"
  },
  {
    "id": 14,
    "keyword": "/isobot_init_call_deploy",
    "keyword2": "/isobot_init_call_deploy@vultik_bot",
    "response_text": "Build and Deploy ISOBOT vos GO initiate calls",
    "jobname": "isobot_vos_initiate_calls_pipeline"
  },
  {
    "id": 15,
    "keyword": "/isobot_redisapi_deploy",
    "keyword2": "/isobot_redisapi_deploy@vultik_bot",
    "response_text": "Building and Deploying ISOBOT vos GO Redis API",
    "jobname": "isobot_vos_Go_RedisApi_pipeline"
  }
]